{1:F21[SENDER]1313[ISN]}{4:{177:0806261503}{451:1}{405:H51004}{108:[MUR]}}{1:F01NTBAATW0AXXX1313018856}{2:I537NTBAATW0AXXXN}{3:{108:63422010F}}{4:
:16R:GENL
:28E:1/ONLY
:20C::SEME//PERI080107000111
:23G:NEWM
:98A::PREP//20080107
:98C::STAT//20080107214241
:22F::SFRE//DAIL
:22F::CODE//COMP
:22H::STST//TRAN
:97A::SAFE//0835-0560826-25-211
:17B::ACTI//Y
:16S:GENL
:16R:TRANS
:16R:LINK
:13A::LINK//541
:20C::RELA//S-L1842060R28S04
:16S:LINK
:16R:LINK
:20C::ASRF//071227CUBE01983
:16S:LINK
:16R:TRANSDET
:94F::SAFE//CUST/HSBCHKHHSEC
:35B:ISIN CNE100000874
SHS -H- CN NATL MATERIA
:36B::PSTA//UNIT/50000,
:19A::PSTA//HKD227270,
:22F::TRAN//SETT
:22H::REDE//RECE
:22H::PAYM//APMT
:22F::SETR//TRAD
:98A::SETT//20071227
:98A::TRAD//20071213
:16S:TRANSDET
:16R:STAT
:25D::MTCH//NMAT
:16R:REAS
:24B::NMAT//CMIS
:16S:REAS
:16S:STAT
:16S:TRANS
-}{5:{CHK:E706EA03F8A2}{TNG:}}
